…
The most basic way to interpolate this missing value would be to estimate it's value as the mean value of all cells adjacent to it (dark grey in plot above).   So the value of the missing cell would be equal to:

$$ \text{cell value} = \text{mean}(16.6, 17.9, 13.1, 19.1, 11.6, 11.1, 16.2, 16.2) = 16.6 $$

If we wanted to be a bit more accurate, we might extend out to the next ring of cells around the cell we are trying to estimate.  But we probably would not want them to factor into the mean calculation as much as the first ring of cells -- the difference betwen two measurements tends to increase with distance.  So if they are two units away from the missing cell of, we might weight them so they contribute 1/4th as much to the estimate as the immediately adjacent cells.

If we were to fill out a table, it would look like this:


```
## # A tibble: 25 x 6
##      row   col  cell value weight weighted_value
##    <int> <int> <int> <dbl>  <dbl>          <dbl>
##  1     1     1     1  18.1   0.25           4.53
##  2     2     1     2  20.1   0.25           5.03
##  3     3     1     3  21.8   0.25           5.45
##  4     4     1     4  17.5   0.25           4.38
##  5     5     1     5  21.6   0.25           5.4 
##  6     1     2     6  21.1   0.25           5.28
##  7     2     2     7  14.3   1             14.3 
##  8     3     2     8  17.3   1             17.3 
##  9     4     2     9  10.3   1             10.3 
## 10     5     2    10  24.8   0.25           6.2 
## # ... with 15 more rows
```
…
